{
  "configVersion": 1,
  "timestamp": 1599618821293,
  "index": "/index.html",
  "assetGroups": [
    {
      "name": "app",
      "installMode": "prefetch",
      "updateMode": "prefetch",
      "cacheQueryOptions": {
        "ignoreVary": true
      },
      "urls": [
        "/10-es2015.0d05d2b0e198b1cf8435.js",
        "/10-es5.0d05d2b0e198b1cf8435.js",
        "/11-es2015.67f4e213ada3678bb7f5.js",
        "/11-es5.67f4e213ada3678bb7f5.js",
        "/12-es2015.857b0e2b5b24c65fe935.js",
        "/12-es5.857b0e2b5b24c65fe935.js",
        "/13-es2015.3baf2639bfd40fcee6c6.js",
        "/13-es5.3baf2639bfd40fcee6c6.js",
        "/14-es2015.91fb206309e2d5dfdd0d.js",
        "/14-es5.91fb206309e2d5dfdd0d.js",
        "/15-es2015.906426c14a48334cbd93.js",
        "/15-es5.906426c14a48334cbd93.js",
        "/16-es2015.9d3623282638052d7e1c.js",
        "/16-es5.9d3623282638052d7e1c.js",
        "/17-es2015.7361b654acb4c1a61959.js",
        "/17-es5.7361b654acb4c1a61959.js",
        "/18-es2015.41097f248c28cc96ed02.js",
        "/18-es5.41097f248c28cc96ed02.js",
        "/19-es2015.e5e89019fe7e22872650.js",
        "/19-es5.e5e89019fe7e22872650.js",
        "/2-es2015.80f24fb0680d56d96580.js",
        "/2-es5.80f24fb0680d56d96580.js",
        "/20-es2015.701432f04b4d3ce0e8e2.js",
        "/20-es5.701432f04b4d3ce0e8e2.js",
        "/21-es2015.4b1c667bb899985c1778.js",
        "/21-es5.4b1c667bb899985c1778.js",
        "/22-es2015.3580d6248519ea67d80f.js",
        "/22-es5.3580d6248519ea67d80f.js",
        "/23-es2015.feecf8b4e0843741996c.js",
        "/23-es5.feecf8b4e0843741996c.js",
        "/24-es2015.6894c45f72688c8eac25.js",
        "/24-es5.6894c45f72688c8eac25.js",
        "/25-es2015.3e0b083baea4836d36d6.js",
        "/25-es5.3e0b083baea4836d36d6.js",
        "/26-es2015.ccd2e4345d511f353287.js",
        "/26-es5.ccd2e4345d511f353287.js",
        "/27-es2015.9c09e627d5d8221fae5b.js",
        "/27-es5.9c09e627d5d8221fae5b.js",
        "/28-es2015.1c2ef0d8a1e1b5e9b2ec.js",
        "/28-es5.1c2ef0d8a1e1b5e9b2ec.js",
        "/29-es2015.630c974dc399f857115f.js",
        "/29-es5.630c974dc399f857115f.js",
        "/30-es2015.377a3c50cb736c31b4ae.js",
        "/30-es5.377a3c50cb736c31b4ae.js",
        "/31-es2015.b230c54aca9c3965a617.js",
        "/31-es5.b230c54aca9c3965a617.js",
        "/32-es2015.8625673673fed5f2c36e.js",
        "/32-es5.8625673673fed5f2c36e.js",
        "/33-es2015.caf24b45d0729981487d.js",
        "/33-es5.caf24b45d0729981487d.js",
        "/34-es2015.ef849f92723c22f7a8ec.js",
        "/34-es5.ef849f92723c22f7a8ec.js",
        "/35-es2015.a37c6c6e2fd96219269e.js",
        "/35-es5.a37c6c6e2fd96219269e.js",
        "/36-es2015.abbaf9de0639555151ef.js",
        "/36-es5.abbaf9de0639555151ef.js",
        "/37-es2015.880d61dfce7bacceafeb.js",
        "/37-es5.880d61dfce7bacceafeb.js",
        "/38-es2015.f316b4589319d63fc4df.js",
        "/38-es5.f316b4589319d63fc4df.js",
        "/39-es2015.c1e42854427437488312.js",
        "/39-es5.c1e42854427437488312.js",
        "/40-es2015.8cb2fd2b93dc6aecc6bd.js",
        "/40-es5.8cb2fd2b93dc6aecc6bd.js",
        "/41-es2015.9b237037d1ea3215b38c.js",
        "/41-es5.9b237037d1ea3215b38c.js",
        "/42-es2015.3ebde6a9f6724ebeb804.js",
        "/42-es5.3ebde6a9f6724ebeb804.js",
        "/43-es2015.ef0483671b52fe0e25ee.js",
        "/43-es5.ef0483671b52fe0e25ee.js",
        "/44-es2015.9fb89a7494a1b91858ed.js",
        "/44-es5.9fb89a7494a1b91858ed.js",
        "/45-es2015.4974de012d97e14f4996.js",
        "/45-es5.4974de012d97e14f4996.js",
        "/46-es2015.dd03b67c4b29847e271a.js",
        "/46-es5.dd03b67c4b29847e271a.js",
        "/47-es2015.410ab07a725a70a40ea9.js",
        "/47-es5.410ab07a725a70a40ea9.js",
        "/48-es2015.6993badb6cf216b47000.js",
        "/48-es5.6993badb6cf216b47000.js",
        "/49-es2015.606b4825e0cf6ccb80d5.js",
        "/49-es5.606b4825e0cf6ccb80d5.js",
        "/50-es2015.0bc416de75c8d73104ae.js",
        "/50-es5.0bc416de75c8d73104ae.js",
        "/51-es2015.7311271399a681b515f9.js",
        "/51-es5.7311271399a681b515f9.js",
        "/52-es2015.cb80b900658ee93141ac.js",
        "/52-es5.cb80b900658ee93141ac.js",
        "/53-es2015.2449dda5562a1fb36e8a.js",
        "/53-es5.2449dda5562a1fb36e8a.js",
        "/54-es2015.9dc9c353a3afdaf4fd0e.js",
        "/54-es5.9dc9c353a3afdaf4fd0e.js",
        "/55-es2015.4dc883351a182ef0a281.js",
        "/55-es5.4dc883351a182ef0a281.js",
        "/56-es2015.55579eb3fd8a2c61989d.js",
        "/56-es5.55579eb3fd8a2c61989d.js",
        "/57-es2015.4f6d41ae6c111e0db813.js",
        "/57-es5.4f6d41ae6c111e0db813.js",
        "/58-es2015.43ee2632685e3d9c6228.js",
        "/58-es5.43ee2632685e3d9c6228.js",
        "/59-es2015.5f5af91fe9b21bcd6666.js",
        "/59-es5.5f5af91fe9b21bcd6666.js",
        "/60-es2015.92b867505c5492f3852d.js",
        "/60-es5.92b867505c5492f3852d.js",
        "/61-es2015.c8cefe40c076f12a59f2.js",
        "/61-es5.c8cefe40c076f12a59f2.js",
        "/common-es2015.5ba1bd739b37c0d5b62a.js",
        "/common-es5.5ba1bd739b37c0d5b62a.js",
        "/index.html",
        "/main-es2015.2009bc6a6e38bc2712c1.js",
        "/main-es5.2009bc6a6e38bc2712c1.js",
        "/manifest.webmanifest",
        "/polyfills-core-js-es2015.22f1882a210e2656646e.js",
        "/polyfills-core-js-es5.22f1882a210e2656646e.js",
        "/polyfills-css-shim-es2015.22cdb8d3838f1709ac9b.js",
        "/polyfills-css-shim-es5.22cdb8d3838f1709ac9b.js",
        "/polyfills-dom-es2015.24551ae9e0bc5335f9b7.js",
        "/polyfills-dom-es5.24551ae9e0bc5335f9b7.js",
        "/polyfills-es2015.91389ecfa80f1063947d.js",
        "/polyfills-es5.7f04130fb748fb469cc3.js",
        "/runtime-es2015.247f5954111c8512d9dd.js",
        "/runtime-es5.247f5954111c8512d9dd.js",
        "/styles.b90531eb9c5954f757a1.css"
      ],
      "patterns": []
    },
    {
      "name": "assets",
      "installMode": "lazy",
      "updateMode": "prefetch",
      "cacheQueryOptions": {
        "ignoreVary": true
      },
      "urls": [
        "/assets/icon/favicon.png",
        "/assets/icons/icon-128x128.png",
        "/assets/icons/icon-144x144.png",
        "/assets/icons/icon-152x152.png",
        "/assets/icons/icon-192x192.png",
        "/assets/icons/icon-384x384.png",
        "/assets/icons/icon-512x512.png",
        "/assets/icons/icon-72x72.png",
        "/assets/icons/icon-96x96.png",
        "/assets/shapes.svg"
      ],
      "patterns": []
    }
  ],
  "dataGroups": [],
  "hashTable": {
    "/10-es2015.0d05d2b0e198b1cf8435.js": "2c4b54c8d49b0d1364a5d20e96f37aa8a492f5bf",
    "/10-es5.0d05d2b0e198b1cf8435.js": "8b2bac19307e6570c4cbf40fe44c23ccb0de3125",
    "/11-es2015.67f4e213ada3678bb7f5.js": "2526a5ffc62a06638a8a3ffd380e909cf0177bfd",
    "/11-es5.67f4e213ada3678bb7f5.js": "5eef9c8bb3270db533364c476c5eca869cc35d88",
    "/12-es2015.857b0e2b5b24c65fe935.js": "b04a948dfce9c6032ff28875a10e2a9a99f18e4b",
    "/12-es5.857b0e2b5b24c65fe935.js": "b4207a761fbca4925d63d645aaf14d2f62856672",
    "/13-es2015.3baf2639bfd40fcee6c6.js": "1476d0da4f108b8b7cf255487e1724e89195afe2",
    "/13-es5.3baf2639bfd40fcee6c6.js": "af16f3e0d930b88fa3aec51d411f68b66545917c",
    "/14-es2015.91fb206309e2d5dfdd0d.js": "d4634d14a9bd6dc0e8309cbca6966dc137345fbd",
    "/14-es5.91fb206309e2d5dfdd0d.js": "fc41ac2fd908dee877b7c2ae20e453568d096696",
    "/15-es2015.906426c14a48334cbd93.js": "771c9f45ce7118930de96af92c176e548d2b5d27",
    "/15-es5.906426c14a48334cbd93.js": "e21bb43b3ee46b7617bab6305fc74bd8a95403b6",
    "/16-es2015.9d3623282638052d7e1c.js": "43da488bd887291c5499c97b02264559c1ee2b56",
    "/16-es5.9d3623282638052d7e1c.js": "201394d837c03b7377dbf4937835cd5e2d0efba8",
    "/17-es2015.7361b654acb4c1a61959.js": "ca4775ea88d3f618e332cf77228c4607b7d1142b",
    "/17-es5.7361b654acb4c1a61959.js": "5c65dd914a44237c6bb7168c96802ca98a20a867",
    "/18-es2015.41097f248c28cc96ed02.js": "492af53fed21c3a223fd40d7c04a71d00675fdc0",
    "/18-es5.41097f248c28cc96ed02.js": "57c345fde6290668da08aea12f21f28ef04fcd87",
    "/19-es2015.e5e89019fe7e22872650.js": "006bfc10e5e662c96abec9c96291fbab2b5a58ef",
    "/19-es5.e5e89019fe7e22872650.js": "fc67b51444f4409db441b1dea76e09bdcef4a0dd",
    "/2-es2015.80f24fb0680d56d96580.js": "5bedccd21b2108e4bad23be31ce16ae5edf68a4b",
    "/2-es5.80f24fb0680d56d96580.js": "b0106ace2bee2ab3e9e7fb27a867869ec9d74010",
    "/20-es2015.701432f04b4d3ce0e8e2.js": "8cad19045f99880ffa81b194f9a1643dd2936cc4",
    "/20-es5.701432f04b4d3ce0e8e2.js": "5a125e72fd2453210df61e75e16f0dea85193441",
    "/21-es2015.4b1c667bb899985c1778.js": "48025e36c3c546662466ea0fd5fec6493100000a",
    "/21-es5.4b1c667bb899985c1778.js": "03c5a4c73e5308cbbd44a65540b04903217d815e",
    "/22-es2015.3580d6248519ea67d80f.js": "975a9d9d7cfb587ebbd142259d2a2da9fe2d4c26",
    "/22-es5.3580d6248519ea67d80f.js": "bcc542807f94ce02e0efcdebd90259ee50e25481",
    "/23-es2015.feecf8b4e0843741996c.js": "06fe3c929fcc79a8de930d9de6eadb44c18c91b2",
    "/23-es5.feecf8b4e0843741996c.js": "c04822dccba9cd8f3a3f8ff8e32e4328e8a7b809",
    "/24-es2015.6894c45f72688c8eac25.js": "2b9bb13c544798f04d39ee483ec72bb172c9fa1e",
    "/24-es5.6894c45f72688c8eac25.js": "ff052973d4072ee2b06c2b65d6eb186c7f832133",
    "/25-es2015.3e0b083baea4836d36d6.js": "a6c2e2f3056ec6f465f913fb308d5ead3de30fd9",
    "/25-es5.3e0b083baea4836d36d6.js": "bdb64a5475f53d26471f911875e480891bfd57e1",
    "/26-es2015.ccd2e4345d511f353287.js": "d039e85c453df0416be513a5dce716b313dd0a82",
    "/26-es5.ccd2e4345d511f353287.js": "70ae624c0176713157cb9e9293f4a5a89f310a3c",
    "/27-es2015.9c09e627d5d8221fae5b.js": "97c5f1b9f847e810cdc60b1a7cf8a8e81c6d1c53",
    "/27-es5.9c09e627d5d8221fae5b.js": "8cc1a49bdfcf086c0aba346eae89cecb21dbd6e4",
    "/28-es2015.1c2ef0d8a1e1b5e9b2ec.js": "643a88e9e8626f1f588e3ae616cc479530280c62",
    "/28-es5.1c2ef0d8a1e1b5e9b2ec.js": "9db01946266351e92506bf60d24b359a48a79195",
    "/29-es2015.630c974dc399f857115f.js": "51d416234bc829a042fbbd2f6527fc9f3ee1a867",
    "/29-es5.630c974dc399f857115f.js": "6832393c4b57653bbd33fbe4db40eed85fbe236a",
    "/30-es2015.377a3c50cb736c31b4ae.js": "70ff4e10ebfa78a3f16fd336e72fc1a3b63f6d26",
    "/30-es5.377a3c50cb736c31b4ae.js": "b2279e3b80b834da852970749697a2dfba2eedf3",
    "/31-es2015.b230c54aca9c3965a617.js": "c99d7b82beb305fb14be9343ceba6f3cf5cb9b03",
    "/31-es5.b230c54aca9c3965a617.js": "74072f2c8d4ed1ead5a3b63c06ee4665335d256b",
    "/32-es2015.8625673673fed5f2c36e.js": "c7446bac3c2d9c5385bca162e4bf097f7536ee34",
    "/32-es5.8625673673fed5f2c36e.js": "dae49e2f56099bf10cf9e786f0a970b0c2b78c19",
    "/33-es2015.caf24b45d0729981487d.js": "d8e4af9b4c0654dbb71eb4811a89728f82054198",
    "/33-es5.caf24b45d0729981487d.js": "144d16b89836656a3aba3fd555c013b440c231a0",
    "/34-es2015.ef849f92723c22f7a8ec.js": "5869a0a2bfdf13a04efd5d240cc3e9da127eeb33",
    "/34-es5.ef849f92723c22f7a8ec.js": "beb7a5d6b0787c8908dcf956726e7a7e8917b0f7",
    "/35-es2015.a37c6c6e2fd96219269e.js": "e890500486b3cee5f45b63b852cc876ba08363d2",
    "/35-es5.a37c6c6e2fd96219269e.js": "182ef43f745ed9d652f29621f6625700f9394ec3",
    "/36-es2015.abbaf9de0639555151ef.js": "36a995d21ae1bab3dcd94969e899f94160335e63",
    "/36-es5.abbaf9de0639555151ef.js": "1a0f3eb739d8ec7c1eb5ef3e3508f6e83d6891fb",
    "/37-es2015.880d61dfce7bacceafeb.js": "439b560a9a8854f0388dbe782280dd93143014ed",
    "/37-es5.880d61dfce7bacceafeb.js": "63812f666295d2e8d4a345144b275fe709dbab51",
    "/38-es2015.f316b4589319d63fc4df.js": "7d298edb1336a11eb4eed063f7cb34a89db9a351",
    "/38-es5.f316b4589319d63fc4df.js": "f839a4db5285d6b07afe78045643caf5f5b4fd9c",
    "/39-es2015.c1e42854427437488312.js": "1223067533982b304eb75de9393481b486813a6e",
    "/39-es5.c1e42854427437488312.js": "ad0e2cd078350dd0cda2e787c53ef00c0619522a",
    "/40-es2015.8cb2fd2b93dc6aecc6bd.js": "e374d23e94aea658495e67d98861e3a94874ade2",
    "/40-es5.8cb2fd2b93dc6aecc6bd.js": "8b782512d60a48ce104061785cb53177e5377c02",
    "/41-es2015.9b237037d1ea3215b38c.js": "84243354422005a2a345cb8d4134d37124bd6594",
    "/41-es5.9b237037d1ea3215b38c.js": "c333247f76ebde899c900ca2d859bca7712aa94d",
    "/42-es2015.3ebde6a9f6724ebeb804.js": "0ec85212ce8539223645ff48eb05ef7d628bd9c9",
    "/42-es5.3ebde6a9f6724ebeb804.js": "cb7d8bc0641659b4abcdd7cb907b6b41cc3aac53",
    "/43-es2015.ef0483671b52fe0e25ee.js": "45f7a9cbec37ec48daee78eb773eaa5bb6d5c41f",
    "/43-es5.ef0483671b52fe0e25ee.js": "ed0f309a4f3b9344a36745a2b9751e9ebd6203c4",
    "/44-es2015.9fb89a7494a1b91858ed.js": "2fcb456d1196dcedda226fd113096ac54db15913",
    "/44-es5.9fb89a7494a1b91858ed.js": "fe9fc16e77fed225f92e4bd5baa2f07bba4bbc45",
    "/45-es2015.4974de012d97e14f4996.js": "858ec3b6741e1e387a7b586a6739c2ba4991f09a",
    "/45-es5.4974de012d97e14f4996.js": "921f770c1e511b70057690fd0ea9fdce8231a078",
    "/46-es2015.dd03b67c4b29847e271a.js": "ed58a49b5c77562fbcfac086acb942073397fec3",
    "/46-es5.dd03b67c4b29847e271a.js": "05a21314a4bdf1f49b91ecb3673f661436353536",
    "/47-es2015.410ab07a725a70a40ea9.js": "f5de43152c392d9c69720e975e1c56df3ece16b3",
    "/47-es5.410ab07a725a70a40ea9.js": "17b0b42bf23ba6dc8d93bed7c29d848b882b5b76",
    "/48-es2015.6993badb6cf216b47000.js": "f7fb1be10351f5480645438924198de3b5f5d461",
    "/48-es5.6993badb6cf216b47000.js": "ea48c89a19ccaafc60554fbecc89bba4b0772c47",
    "/49-es2015.606b4825e0cf6ccb80d5.js": "abac2a657f0edc5bae44c57e6cc6b110087ffa9f",
    "/49-es5.606b4825e0cf6ccb80d5.js": "d2dcb564bcb5700e939804772323337108a268ad",
    "/50-es2015.0bc416de75c8d73104ae.js": "c94bea9fabe2593addaf1d7e19c8771c193c4ede",
    "/50-es5.0bc416de75c8d73104ae.js": "6bb38324f682c4028b0832d0d4988f13b077840c",
    "/51-es2015.7311271399a681b515f9.js": "88cd003df34dd17ff963364f9a7c49d952e8701c",
    "/51-es5.7311271399a681b515f9.js": "5c57116187270d70ff68ce1507b1e37727eca601",
    "/52-es2015.cb80b900658ee93141ac.js": "0ef032dbcc1d52cf3a6319e984b107eaf7979e55",
    "/52-es5.cb80b900658ee93141ac.js": "8a70b390ac064ba8a3209ddccdaa2912511af2f3",
    "/53-es2015.2449dda5562a1fb36e8a.js": "6063598ec242dfab25c11fef046edce19770dc01",
    "/53-es5.2449dda5562a1fb36e8a.js": "72fcdc5e0f73809b194d383d43cdad2fcecbaf1f",
    "/54-es2015.9dc9c353a3afdaf4fd0e.js": "ae83e70e54b596e253d72e7039663f31af023786",
    "/54-es5.9dc9c353a3afdaf4fd0e.js": "abdfb385f4aac4d66dd29cae62b52ba135f15f2a",
    "/55-es2015.4dc883351a182ef0a281.js": "8b98efdfca52a7de059befe846bdb672fc3ebf2a",
    "/55-es5.4dc883351a182ef0a281.js": "b1187f9e180d30ec40487a147a63ba23ddfcf94c",
    "/56-es2015.55579eb3fd8a2c61989d.js": "ee2adb7cf52d2ecabb1f9696b6aa70b99f615149",
    "/56-es5.55579eb3fd8a2c61989d.js": "acbde555274bb52ceace01adc4c44a467994df7d",
    "/57-es2015.4f6d41ae6c111e0db813.js": "3d287a2b8250a1135bd413981663e738da44fb20",
    "/57-es5.4f6d41ae6c111e0db813.js": "a8bf2f8fd4c294068b35c858b20ed49b90fa42fb",
    "/58-es2015.43ee2632685e3d9c6228.js": "1d1e670e98f291e509223a0857f5aa444c50f0f6",
    "/58-es5.43ee2632685e3d9c6228.js": "abf31153f87e02219ecf1e8458ec4b7f1f24a24c",
    "/59-es2015.5f5af91fe9b21bcd6666.js": "08e7924839c3f89090ee0846053c4536d4c7cc67",
    "/59-es5.5f5af91fe9b21bcd6666.js": "38cd81cf1b7885fc2d686451934b99dc525ff22e",
    "/60-es2015.92b867505c5492f3852d.js": "b4f3f5e0b176a9f404d117e5f5b78983bc6da8f6",
    "/60-es5.92b867505c5492f3852d.js": "48d115e81c6d80b2873dbacc7f6cdede709f9cc0",
    "/61-es2015.c8cefe40c076f12a59f2.js": "6aa65713fb4279eb68d730d012f826f342812dcd",
    "/61-es5.c8cefe40c076f12a59f2.js": "fb896a8a39308aa554db0eff7b70a76353f7239c",
    "/assets/icon/favicon.png": "7798b8e0eb61d7375c245af78bbf5c916932bf13",
    "/assets/icons/icon-128x128.png": "dae3b6ed49bdaf4327b92531d4b5b4a5d30c7532",
    "/assets/icons/icon-144x144.png": "b0bd89982e08f9bd2b642928f5391915b74799a7",
    "/assets/icons/icon-152x152.png": "7479a9477815dfd9668d60f8b3b2fba709b91310",
    "/assets/icons/icon-192x192.png": "1abd80d431a237a853ce38147d8c63752f10933b",
    "/assets/icons/icon-384x384.png": "329749cd6393768d3131ed6304c136b1ca05f2fd",
    "/assets/icons/icon-512x512.png": "559d9c4318b45a1f2b10596bbb4c960fe521dbcc",
    "/assets/icons/icon-72x72.png": "c457e56089a36952cd67156f9996bc4ce54a5ed9",
    "/assets/icons/icon-96x96.png": "3914125a4b445bf111c5627875fc190f560daa41",
    "/assets/shapes.svg": "5413e95adabcb2cb639970051f55e0ddb64ace53",
    "/common-es2015.5ba1bd739b37c0d5b62a.js": "5a08ccc29ab2883312a1ea3bbb8f9f4fdbda958f",
    "/common-es5.5ba1bd739b37c0d5b62a.js": "f0fedf36adae5bcd1f1b83329baf976ad472c04b",
    "/index.html": "c851e2906b45c7084d0d8c6d6778800ca33e7f96",
    "/main-es2015.2009bc6a6e38bc2712c1.js": "8838ccef45a917558e08c06ca077e318e71ebd13",
    "/main-es5.2009bc6a6e38bc2712c1.js": "17c9ae7c31f97a4e70b6a4ff5764439b79c7b875",
    "/manifest.webmanifest": "9a088b7c4339228d1082e666ce105dc889bc180c",
    "/polyfills-core-js-es2015.22f1882a210e2656646e.js": "f007c630c357ee7eeec2289a6cfc013dbcbe6fe9",
    "/polyfills-core-js-es5.22f1882a210e2656646e.js": "8531ee642b05d9e12e859babeaec61c2b1c1e57a",
    "/polyfills-css-shim-es2015.22cdb8d3838f1709ac9b.js": "5ee260a7051a19dcf88aeaed726570fa19ac1d4c",
    "/polyfills-css-shim-es5.22cdb8d3838f1709ac9b.js": "5ea76e57ad872a74ef6c151f53fc4f5a54f9bfe1",
    "/polyfills-dom-es2015.24551ae9e0bc5335f9b7.js": "50e795de8617f137b6640a5f3b7c432dd75900f1",
    "/polyfills-dom-es5.24551ae9e0bc5335f9b7.js": "50e795de8617f137b6640a5f3b7c432dd75900f1",
    "/polyfills-es2015.91389ecfa80f1063947d.js": "8ea3172d9dfcf79a7dea59945f5c6db8864d21f6",
    "/polyfills-es5.7f04130fb748fb469cc3.js": "a25578164cd3191cc5b39071e25f6be9f62477eb",
    "/runtime-es2015.247f5954111c8512d9dd.js": "ec83725779eb9e228432b7deaf91afb689ba548c",
    "/runtime-es5.247f5954111c8512d9dd.js": "c559dcfd24587903d8c905b4e2c2571b12ad811f",
    "/styles.b90531eb9c5954f757a1.css": "54cea12bcba483376a503f8129ffb6fc11e9de49"
  },
  "navigationUrls": [
    {
      "positive": true,
      "regex": "^\\/.*$"
    },
    {
      "positive": false,
      "regex": "^\\/(?:.+\\/)?[^/]*\\.[^/]*$"
    },
    {
      "positive": false,
      "regex": "^\\/(?:.+\\/)?[^/]*__[^/]*$"
    },
    {
      "positive": false,
      "regex": "^\\/(?:.+\\/)?[^/]*__[^/]*\\/.*$"
    }
  ]
}